five-stage-pipeline/waveform.vcd
$date
	Sat Nov 22 16:55:01 2025
$end
$version
	Icarus Verilog
$end
$timescale
	1ps
$end
$scope module top_module_tb $end
$var parameter 32 ! ALU_CTRL_BITS $end
$var parameter 32 " PC_WIDTH $end
$var parameter 32 # REG_WIDTH $end
$var reg 1 $ clk $end
$var reg 32 % current_instr [31:0] $end
$var reg 1 & rst $end
$var integer 32 ' cycle [31:0] $end
$var integer 32 ( instr_count [31:0] $end
$var integer 32 ) pc_index [31:0] $end
$scope module top_module_dut $end
$var wire 1 $ clk $end
$var wire 1 & rst $end
$var wire 1 * stall $end
$var wire 5 + rs2_addr_3_out [4:0] $end
$var wire 5 , rs2_addr_2_out [4:0] $end
$var wire 64 - rs2_3_out [63:0] $end
$var wire 64 . rs2_2_out [63:0] $end
$var wire 64 / rs2_2_in [63:0] $end
$var wire 5 0 rs1_addr_2_out [4:0] $end
$var wire 64 1 rs1_2_out [63:0] $end
$var wire 64 2 rs1_2_in [63:0] $end
$var wire 64 3 reg_wb_data [63:0] $end
$var wire 5 4 rd_addr_4_out [4:0] $end
$var wire 5 5 rd_addr_3_out [4:0] $end
$var wire 5 6 rd_addr_2_out [4:0] $end
$var wire 64 7 pc_reg_in [63:0] $end
$var wire 64 8 pc_jump_addr_3_in [63:0] $end
$var wire 64 9 pc_branch_addr_3_out [63:0] $end
$var wire 64 : pc_branch_addr_3_in [63:0] $end
$var wire 64 ; pc_4 [63:0] $end
$var wire 64 < pc_2_out [63:0] $end
$var wire 64 = pc_1_out [63:0] $end
$var wire 64 > pc_1_in [63:0] $end
$var wire 64 ? mem_read_data_4_out [63:0] $end
$var wire 64 @ mem_read_data_4_in [63:0] $end
$var wire 1 A is_jalr_4_out $end
$var wire 1 B is_jalr_3_out $end
$var wire 1 C is_jalr_2_out $end
$var wire 1 D is_jalr_2_in $end
$var wire 1 E is_jal_4_out $end
$var wire 1 F is_jal_3_out $end
$var wire 1 G is_jal_2_out $end
$var wire 1 H is_jal_2_in $end
$var wire 1 I is_auipc_4_out $end
$var wire 1 J is_auipc_3_out $end
$var wire 1 K is_auipc_2_out $end
$var wire 1 L is_auipc_2_in $end
$var wire 32 M instruction_1_out [31:0] $end
$var wire 32 N instruction_1_in [31:0] $end
$var wire 64 O imm_2_out [63:0] $end
$var wire 64 P imm_2_in [63:0] $end
$var wire 3 Q funct3_2_out [2:0] $end
$var wire 64 R forwarded_rs2 [63:0] $end
$var wire 64 S forwarded_rs1 [63:0] $end
$var wire 2 T forwardB [1:0] $end
$var wire 2 U forwardA [1:0] $end
$var wire 1 V flush $end
$var wire 2 W flag [1:0] $end
$var wire 1 X branch_taken_3_in $end
$var wire 1 Y branch_2_out $end
$var wire 1 Z branch_2_in $end
$var wire 64 [ alu_res_4_out [63:0] $end
$var wire 64 \ alu_res_3_out [63:0] $end
$var wire 64 ] alu_res_3_in [63:0] $end
$var wire 64 ^ alu_op1 [63:0] $end
$var wire 1 _ RegWrite_4_out $end
$var wire 1 ` RegWrite_3_out $end
$var wire 1 a RegWrite_2_out $end
$var wire 1 b RegWrite_2_in $end
$var wire 1 c MemtoReg_4_out $end
$var wire 1 d MemtoReg_3_out $end
$var wire 1 e MemtoReg_2_out $end
$var wire 1 f MemtoReg_2_in $end
$var wire 1 g MemWrite_3_out $end
$var wire 1 h MemWrite_2_out $end
$var wire 1 i MemWrite_2_in $end
$var wire 2 j MemWidth_3_out [1:0] $end
$var wire 2 k MemWidth_2_out [1:0] $end
$var wire 2 l MemWidth_2_in [1:0] $end
$var wire 1 m MemSign_3_out $end
$var wire 1 n MemSign_2_out $end
$var wire 1 o MemSign_2_in $end
$var wire 1 p MemRead_3_out $end
$var wire 1 q MemRead_2_out $end
$var wire 1 r MemRead_2_in $end
$var wire 5 s ALUCtrl_2_out [4:0] $end
$var wire 5 t ALUCtrl_2_in [4:0] $end
$var parameter 32 u ALU_CTRL_BITS $end
$var parameter 32 v PC_WIDTH $end
$var parameter 32 w REG_COUNT $end
$var parameter 32 x REG_WIDTH $end
$scope module alu_dut $end
$var wire 5 y ALUCtrl [4:0] $end
$var wire 64 z and_ans [63:0] $end
$var wire 64 { andi_ans [63:0] $end
$var wire 64 | or_ans [63:0] $end
$var wire 64 } ori_ans [63:0] $end
$var wire 64 ~ xor_ans [63:0] $end
$var wire 64 !" xori_ans [63:0] $end
$var wire 1 "" t2 $end
$var wire 1 #" t1 $end
$var wire 1 $" t0 $end
$var wire 64 %" sub_ans [63:0] $end
$var wire 64 &" srli_ans [63:0] $end
$var wire 64 '" srl_ans [63:0] $end
$var wire 64 (" srai_ans [63:0] $end
$var wire 64 )" sra_ans [63:0] $end
$var wire 64 *" sltui_ans [63:0] $end
$var wire 64 +" sltu_ans [63:0] $end
$var wire 64 ," slti_ans [63:0] $end
$var wire 64 -" slt_ans [63:0] $end
$var wire 64 ." slli_ans [63:0] $end
$var wire 64 /" sll_ans [63:0] $end
$var wire 64 0" rs2 [63:0] $end
$var wire 64 1" rs1 [63:0] $end
$var wire 64 2" imm [63:0] $end
$var wire 64 3" addi_ans [63:0] $end
$var wire 64 4" add_ans [63:0] $end
$var parameter 32 5" ALU_CTRL_BITS $end
$var parameter 32 6" REG_WIDTH $end
$var reg 64 7" alu_out [63:0] $end
$upscope $end
$scope module alu_op1_mux_dut $end
$var wire 1 8" jump $end
$var wire 64 9" rs1 [63:0] $end
$var wire 64 :" pc [63:0] $end
$var wire 64 ;" operand1 [63:0] $end
$var parameter 32 <" PC_WIDTH $end
$var parameter 32 =" REG_WIDTH $end
$upscope $end
$scope module branch_taken_dut $end
$var wire 1 Y branch $end
$var wire 64 >" rs2 [63:0] $end
$var wire 64 ?" rs1 [63:0] $end
$var wire 3 @" funct3 [2:0] $end
$var parameter 32 A" REG_WIDTH $end
$var reg 1 X branch_taken_out $end
$upscope $end
$scope module control_unit_dut $end
$var wire 1 B" s_type $end
$var wire 1 C" r_type $end
$var wire 7 D" opcode [6:0] $end
$var wire 1 E" load_type $end
$var wire 1 F" is_lui $end
$var wire 1 D is_jalr $end
$var wire 1 H is_jal $end
$var wire 1 L is_auipc $end
$var wire 32 G" instruction [31:0] $end
$var wire 1 H" i_type $end
$var wire 7 I" funct7 [6:0] $end
$var wire 6 J" funct6 [5:0] $end
$var wire 3 K" funct3 [2:0] $end
$var wire 1 L" b_type $end
$var parameter 32 M" ALU_CTRL_BITS $end
$var parameter 32 N" REG_WIDTH $end
$var reg 5 O" ALUCtrl [4:0] $end
$var reg 1 r MemRead $end
$var reg 1 o MemSign $end
$var reg 2 P" MemWidth [1:0] $end
$var reg 1 i MemWrite $end
$var reg 1 f MemtoReg $end
$var reg 1 b RegWrite $end
$var reg 1 Z branch $end
$upscope $end
$scope module data_mem_dut $end
$var wire 1 p MemRead $end
$var wire 1 m MemSign $end
$var wire 2 Q" MemWidth [1:0] $end
$var wire 1 g MemWrite $end
$var wire 1 $ clk $end
$var wire 64 R" wdata [63:0] $end
$var wire 64 S" full_addr [63:0] $end
$var wire 10 T" addr [9:0] $end
$var parameter 32 U" ADDR_WIDTH $end
$var parameter 32 V" MEM_DEPTH $end
$var parameter 32 W" REG_WIDTH $end
$var reg 64 X" rdata [63:0] $end
$upscope $end
$scope module ex_mem_reg_dut $end
$var wire 64 Y" ALU_res_in [63:0] $end
$var wire 5 Z" M_Ctrl_in [4:0] $end
$var wire 5 [" WB_Ctrl_in [4:0] $end
$var wire 1 $ clk $end
$var wire 64 \" rs2_data_in [63:0] $end
$var wire 1 & rst $end
$var wire 5 ]" rs2_addr_in [4:0] $end
$var wire 5 ^" rd_addr_in [4:0] $end
$var wire 64 _" PC_in [63:0] $end
$var parameter 32 `" M_Ctrl_bits $end
$var parameter 32 a" PC_WIDTH $end
$var parameter 32 b" REG_COUNT $end
$var parameter 32 c" REG_WIDTH $end
$var parameter 32 d" WB_Ctrl_bits $end
$var reg 64 e" ALU_res_out [63:0] $end
$var reg 5 f" M_Ctrl_out [4:0] $end
$var reg 64 g" PC_out [63:0] $end
$var reg 5 h" WB_Ctrl_out [4:0] $end
$var reg 5 i" rd_addr_out [4:0] $end
$var reg 5 j" rs2_addr_out [4:0] $end
$var reg 64 k" rs2_data_out [63:0] $end
$upscope $end
$scope module forward_mux_dut $end
$var wire 64 l" ex_alu_res [63:0] $end
$var wire 64 m" reg_wb_data [63:0] $end
$var wire 64 n" reg_data_rs2 [63:0] $end
$var wire 64 o" reg_data_rs1 [63:0] $end
$var wire 2 p" forwardB [1:0] $end
$var wire 2 q" forwardA [1:0] $end
$var parameter 32 r" REG_WIDTH $end
$var reg 64 s" forwarded_rs1 [63:0] $end
$var reg 64 t" forwarded_rs2 [63:0] $end
$upscope $end
$scope module forwarding_unit_dut $end
$var wire 1 ` EX_MEM_RegWrite $end
$var wire 5 u" EX_MEM_rd [4:0] $end
$var wire 1 _ MEM_WB_RegWrite $end
$var wire 5 v" MEM_WB_rd [4:0] $end
$var wire 5 w" ID_EX_rs2 [4:0] $end
$var wire 5 x" ID_EX_rs1 [4:0] $end
$var reg 2 y" forwardA [1:0] $end
$var reg 2 z" forwardB [1:0] $end
$upscope $end
$scope module hazard_unit_dut $end
$var wire 1 q ID_EX_MemRead $end
$var wire 5 {" IF_ID_rs1 [4:0] $end
$var wire 5 |" IF_ID_rs2 [4:0] $end
$var wire 1 X branch_taken $end
$var wire 1 G is_jal $end
$var wire 1 C is_jalr $end
$var wire 5 }" ID_EX_rd [4:0] $end
$var parameter 32 ~" REG_COUNT $end
$var parameter 32 !# REG_WIDTH $end
$var reg 1 V flush $end
$var reg 1 * stall $end
$upscope $end
$scope module id_ex_reg_dut $end
$var wire 6 "# EX_Ctrl_in [5:0] $end
$var wire 5 ## M_Ctrl_in [4:0] $end
$var wire 5 $# WB_Ctrl_in [4:0] $end
$var wire 1 $ clk $end
$var wire 1 V flush $end
$var wire 3 %# funct3_in [2:0] $end
$var wire 5 &# rd_addr_in [4:0] $end
$var wire 5 '# rs1_addr_in [4:0] $end
$var wire 5 (# rs2_addr_in [4:0] $end
$var wire 1 & rst $end
$var wire 1 * stall $end
$var wire 64 )# rs2_data_in [63:0] $end
$var wire 64 *# rs1_data_in [63:0] $end
$var wire 64 +# imm_in [63:0] $end
$var wire 64 ,# PC_in [63:0] $end
$var parameter 32 -# EX_Ctrl_bits $end
$var parameter 32 .# M_Ctrl_bits $end
$var parameter 32 /# PC_WIDTH $end
$var parameter 32 0# REG_COUNT $end
$var parameter 32 1# REG_WIDTH $end
$var parameter 32 2# WB_Ctrl_bits $end
$var reg 6 3# EX_Ctrl_out [5:0] $end
$var reg 5 4# M_Ctrl_out [4:0] $end
$var reg 64 5# PC_out [63:0] $end
$var reg 5 6# WB_Ctrl_out [4:0] $end
$var reg 3 7# funct3_out [2:0] $end
$var reg 64 8# imm_out [63:0] $end
$var reg 5 9# rd_addr_out [4:0] $end
$var reg 5 :# rs1_addr_out [4:0] $end
$var reg 64 ;# rs1_data_out [63:0] $end
$var reg 5 <# rs2_addr_out [4:0] $end
$var reg 64 =# rs2_data_out [63:0] $end
$upscope $end
$scope module if_id_reg_dut $end
$var wire 1 $ clk $end
$var wire 1 V flush $end
$var wire 1 & rst $end
$var wire 1 * stall $end
$var wire 32 ># instruction_in [31:0] $end
$var wire 64 ?# PC_in [63:0] $end
$var parameter 32 @# PC_WIDTH $end
$var reg 64 A# PC_out [63:0] $end
$var reg 32 B# instruction_out [31:0] $end
$upscope $end
$scope module imm_gen_dut $end
$var wire 32 C# instruction [31:0] $end
$var wire 7 D# opcode [6:0] $end
$var parameter 32 E# REG_WIDTH $end
$var reg 64 F# imm [63:0] $end
$upscope $end
$scope module instruction_mem_dut $end
$var wire 1 $ clk $end
$var wire 64 G# pc [63:0] $end
$var parameter 32 H# ADDR_WIDTH $end
$var parameter 32 I# PC_WIDTH $end
$var reg 32 J# instruction [31:0] $end
$upscope $end
$scope module mem_wb_reg_dut $end
$var wire 64 K# ALU_res_in [63:0] $end
$var wire 5 L# WB_Ctrl_in [4:0] $end
$var wire 1 $ clk $end
$var wire 64 M# mem_read_data_in [63:0] $end
$var wire 5 N# rd_addr_in [4:0] $end
$var wire 1 O# rst $end
$var parameter 32 P# REG_COUNT $end
$var parameter 32 Q# REG_WIDTH $end
$var parameter 32 R# WB_Ctrl_bits $end
$var reg 64 S# ALU_res_out [63:0] $end
$var reg 5 T# WB_Ctrl_out [4:0] $end
$var reg 64 U# mem_read_data_out [63:0] $end
$var reg 5 V# rd_addr_out [4:0] $end
$upscope $end
$scope module pc_4_add_dut $end
$var wire 64 W# pc_out [63:0] $end
$var wire 64 X# pc_in [63:0] $end
$var parameter 32 Y# PC_WIDTH $end
$upscope $end
$scope module pc_add_imm_dut $end
$var wire 64 Z# imm [63:0] $end
$var wire 64 [# pc [63:0] $end
$var parameter 32 \# PC_WIDTH $end
$var parameter 32 ]# REG_WIDTH $end
$var reg 64 ^# pc_out [63:0] $end
$upscope $end
$scope module pc_jump_dut $end
$var wire 64 _# imm [63:0] $end
$var wire 1 G is_jal $end
$var wire 1 C is_jalr $end
$var wire 64 `# pc [63:0] $end
$var wire 64 a# rs1 [63:0] $end
$var parameter 32 b# PC_WIDTH $end
$var parameter 32 c# REG_WIDTH $end
$var reg 64 d# pc_jump [63:0] $end
$upscope $end
$scope module pc_next_mux_dut $end
$var wire 64 e# branch_addr [63:0] $end
$var wire 1 X branch_taken $end
$var wire 1 f# jump $end
$var wire 64 g# pc_jump_addr [63:0] $end
$var wire 64 h# pc_plus_4 [63:0] $end
$var parameter 32 i# PC_WIDTH $end
$var reg 64 j# pc_next [63:0] $end
$upscope $end
$scope module pc_reg_dut $end
$var wire 1 $ clk $end
$var wire 1 V flush $end
$var wire 64 k# pc_in [63:0] $end
$var wire 1 & rst $end
$var wire 1 * stall $end
$var parameter 32 l# PC_WIDTH $end
$var reg 64 m# pc_out [63:0] $end
$upscope $end
$scope module reg_file_dut $end
$var wire 1 $ clk $end
$var wire 5 n# raddr1 [4:0] $end
$var wire 5 o# raddr2 [4:0] $end
$var wire 1 & rst $end
$var wire 5 p# waddr [4:0] $end
$var wire 1 _ writeEnable $end
$var wire 64 q# wdata [63:0] $end
$var wire 64 r# rdata2 [63:0] $end
$var wire 64 s# rdata1 [63:0] $end
$var parameter 32 t# REG_COUNT $end
$var parameter 32 u# REG_WIDTH $end
$scope begin $unm_blk_49 $end
$var integer 32 v# i [31:0] $end
$upscope $end
$upscope $end
$scope module store_forwarding_unit_dut $end
$var wire 5 w# EX_MEM_rd_addr [4:0] $end
$var wire 5 x# ID_EX_rs2_addr [4:0] $end
$var wire 5 y# MEM_WB_rd_addr [4:0] $end
$var parameter 32 z# REG_COUNT $end
$var parameter 32 {# REG_WIDTH $end
$var reg 2 |# flag [1:0] $end
$upscope $end
$scope module wb_mux_dut $end
$var wire 64 }# ALU_res [63:0] $end
$var wire 1 c MemtoReg $end
$var wire 64 ~# mem_read_data [63:0] $end
$var parameter 32 !$ REG_WIDTH $end
$var reg 64 "$ reg_wb_data [63:0] $end
$upscope $end
$upscope $end
$scope task print_regfile $end
$var integer 32 #$ j [31:0] $end
$upscope $end
$upscope $end
$enddefinitions $end
$comment Show the parameter values. $end
$dumpall
b1000000 !$
b1000000 {#
b100000 z#
b1000000 u#
b100000 t#
b1000000 l#
b1000000 i#
b1000000 c#
b1000000 b#
b1000000 ]#
b1000000 \#
b1000000 Y#
b101 R#
b1000000 Q#
b100000 P#
b1000000 I#
b1010 H#
b1000000 E#
b1000000 @#
b101 2#
b1000000 1#
b100000 0#
b1000000 /#
b101 .#
b110 -#
b1000000 !#
b100000 ~"
b1000000 r"
b101 d"
b1000000 c"
b100000 b"
b1000000 a"
b101 `"
b1000000 W"
b10000000000 V"
b1010 U"
b1000000 N"
b101 M"
b1000000 A"
b1000000 ="
b1000000 <"
b1000000 6"
b101 5"
b1000000 x
b100000 w
b1000000 v
b101 u
b1000000 #
b1000000 "
b101 !
$end
#0
$dumpvars
bx #$
bx "$
bx ~#
bx }#
b0 |#
bx y#
b0 x#
b0 w#
b100000 v#
b0 s#
b0 r#
bx q#
bx p#
b0 o#
b0 n#
b0 m#
b100 k#
b100 j#
b100 h#
b0 g#
0f#
b0 e#
b0 d#
b0 a#
b0 `#
b0 _#
b0 ^#
b0 [#
b0 Z#
b0 X#
b100 W#
bx V#
bx U#
bx T#
bx S#
zO#
b0 N#
bx M#
b0 L#
b0 K#
b100000000111110010011 J#
b0 G#
b0 F#
b0 D#
b0 C#
b0 B#
b0 A#
b0 ?#
b100000000111110010011 >#
b0 =#
b0 <#
b0 ;#
b0 :#
b0 9#
b0 8#
b0 7#
b0 6#
b0 5#
b0 4#
b0 3#
b0 ,#
b0 +#
b0 *#
b0 )#
b0 (#
b0 '#
b0 &#
b0 %#
b0 $#
b0 ##
bx0 "#
b0 }"
b0 |"
b0 {"
b0 z"
b0 y"
b0 x"
b0 w"
bx v"
b0 u"
b0 t"
b0 s"
b0 q"
b0 p"
b0 o"
b0 n"
bx m"
b0 l"
b0 k"
b0 j"
b0 i"
b0 h"
b0 g"
b0 f"
b0 e"
b0 _"
b0 ^"
b0 ]"
b0 \"
b0 ["
b0 Z"
b0 Y"
bx X"
b0 T"
b0 S"
b0 R"
b0 Q"
b0 P"
bx O"
0L"
b0 K"
b0 J"
b0 I"
0H"
b0 G"
0F"
0E"
b0 D"
0C"
0B"
b0 @"
b0 ?"
b0 >"
b0 ;"
b0 :"
b0 9"
08"
b0 7"
b0 4"
b0 3"
b0 2"
b0 1"
b0 0"
b0 /"
b0 ."
b0 -"
b0 ,"
b0 +"
b0 *"
b0 )"
b0 ("
b0 '"
b0 &"
b0 %"
0$"
0#"
0""
b0 !"
b0 ~
b0 }
b0 |
b0 {
b0 z
b0 y
bx t
b0 s
0r
0q
0p
0o
0n
0m
b0 l
b0 k
b0 j
0i
0h
0g
0f
0e
0d
xc
0b
0a
0`
x_
b0 ^
b0 ]
b0 \
bx [
0Z
0Y
0X
b0 W
0V
b0 U
b0 T
b0 S
b0 R
b0 Q
b0 P
b0 O
b100000000111110010011 N
b0 M
0L
0K
0J
xI
0H
0G
0F
xE
0D
0C
0B
xA
bx @
bx ?
b0 >
b0 =
b0 <
b100 ;
b0 :
b0 9
b0 8
b100 7
b0 6
b0 5
bx 4
bx 3
b0 2
b0 1
b0 0
b0 /
b0 .
b0 -
b0 ,
b0 +
0*
bx )
b101010 (
b0 '
1&
bx %
0$
$end
#5000
b0 3
b0 m"
b0 q#
b0 "$
0_
0c
0I
0A
0E
b0 4
b0 v"
b0 V#
b0 p#
b0 y#
b0 [
b0 S#
b0 }#
b0 T#
b100000 v#
1$
#10000
0$
#15000
b100000 v#
1$
#17000
0&
#20000
0$
#25000
bx ]
bx 7"
bx Y"
b1 P
b1 +#
b1 F#
b100000 "#
b10000 t
b10000 O"
b1 $#
1b
bx s
bx y
b10011 D#
1H"
b10011 D"
b1 |"
b1 (#
b11111 &#
b1 o#
b1000 7
b1000 j#
b1000 k#
b11000000000000000011101111 N
b11000000000000000011101111 >#
b11000000000000000011101111 J#
bx0 3#
b100000000111110010011 M
b100000000111110010011 G"
b100000000111110010011 B#
b100000000111110010011 C#
b1000 ;
b1000 W#
b1000 h#
b100 >
b100 ?#
b100 G#
b100 X#
b100 m#
b1 '
1$
#26000
b100000 #$
b11000000000000000011101111 %
b1 )
#30000
0$
#35000
b111100 "#
b11110 t
b11110 O"
b1 ]
b1 7"
b1 Y"
b1100 7
b1100 j#
b1100 k#
b11111111010000000000001110010011 N
b11111111010000000000001110010011 >#
b11111111010000000000001110010011 J#
b1101111 D#
b1 I"
0H"
b10001 $#
1H
b1101111 D"
b10000 |"
b10000 (#
b1 &#
b10000 o#
b110000 P
b110000 +#
b110000 F#
b10000 s
b10000 y
b1 ["
1a
b1 *"
b1 ,"
b1 3"
b1 }
b1 !"
b1 :
b1 _"
b1 ^#
b1 e#
bx T"
b1100 ;
b1100 W#
b1100 h#
b1000 >
b1000 ?#
b1000 G#
b1000 X#
b1000 m#
b11000000000000000011101111 M
b11000000000000000011101111 G"
b11000000000000000011101111 B#
b11000000000000000011101111 C#
b100 =
b100 ,#
b100 A#
b1 ,
b1 ]"
b1 w"
b1 <#
b1 x#
b100000 3#
b1 6#
b11111 6
b11111 ^"
b11111 }"
b11111 9#
b1 O
b1 2"
b1 8#
b1 Z#
b1 _#
bx \
bx S"
bx e"
bx l"
bx K#
b10 '
1$
#36000
b100000 #$
b11111111010000000000001110010011 %
b10 )
#40000
0$
#45000
b100 %"
b100 4"
b100 |
b100 ~
b100000000000000000000000000000000000000000000000000 ."
b100 )"
b100 '"
b100 /"
b100 ^
b100 1"
b100 ;"
18"
1V
1f#
b1000 ]
b1000 7"
b1000 Y"
b100000 "#
b10000 t
b10000 O"
b1 T"
b1 L#
1`
b11110 s
b11110 y
b10001 ["
1G
b110100 3"
b110100 }
b110100 !"
b110100 :
b110100 _"
b110100 ^#
b110100 e#
b110100 8
b110100 d#
b110100 g#
b10011 D#
b111111 J"
b1111111 I"
1H"
b1 $#
0H
b10011 D"
b10100 |"
b10100 (#
b111 &#
b10100 o#
b1111111111111111111111111111111111111111111111111111111111110100 P
b1111111111111111111111111111111111111111111111111111111111110100 +#
b1111111111111111111111111111111111111111111111111111111111110100 F#
b110100 7
b110100 j#
b110100 k#
b100000000000010000010011 N
b100000000000010000010011 >#
b100000000000010000010011 J#
bx 3
bx m"
bx q#
bx "$
b1 +
b1 j"
b11111 5
b11111 i"
b11111 u"
b11111 N#
b11111 w#
b1 \
b1 S"
b1 e"
b1 l"
b1 K#
b1 9
b1 g"
b1 h"
b10000 ,
b10000 ]"
b10000 w"
b10000 <#
b10000 x#
b111100 3#
b10001 6#
b1 6
b1 ^"
b1 }"
b1 9#
b110000 O
b110000 2"
b110000 8#
b110000 Z#
b110000 _#
b100 <
b100 :"
b100 5#
b100 [#
b100 `#
b11111111010000000000001110010011 M
b11111111010000000000001110010011 G"
b11111111010000000000001110010011 B#
b11111111010000000000001110010011 C#
b1000 =
b1000 ,#
b1000 A#
b10000 ;
b10000 W#
b10000 h#
b1100 >
b1100 ?#
b1100 G#
b1100 X#
b1100 m#
bx [
bx S#
bx }#
b11 '
1$
#46000
b100000 #$
b100000000000010000010011 %
b11 )
#50000
0$
#55000
08"
b0 $#
0b
0f#
b0 %"
b0 4"
b0 |
b0 ~
b111000 7
b111000 j#
b111000 k#
b11111111111011111000111110010011 N
b11111111111011111000111110010011 >#
b11111111111011111000111110010011 J#
b0 D#
b0 J"
b0 I"
0H"
b0 D"
b0 |"
b0 (#
b0 &#
b0 o#
b0 P
b0 +#
b0 F#
b0 s
b0 y
0a
b0 ["
0G
0V
b0 *"
b0 ,"
b0 3"
b0 }
b0 !"
b0 ]
b0 7"
b0 Y"
b0 ."
b0 )"
b0 '"
b0 /"
b0 ^
b0 1"
b0 ;"
b0 :
b0 _"
b0 ^#
b0 e#
b0 8
b0 d#
b0 g#
b1000 T"
b10001 L#
1F
b1 3
b1 m"
b1 q#
b1 "$
1_
b111000 ;
b111000 W#
b111000 h#
b110100 >
b110100 ?#
b110100 G#
b110100 X#
b110100 m#
b0 M
b0 G"
b0 B#
b0 C#
b0 =
b0 ,#
b0 A#
b0 ,
b0 ]"
b0 w"
b0 <#
b0 x#
b0 3#
b0 6#
b0 6
b0 ^"
b0 }"
b0 9#
b0 O
b0 2"
b0 8#
b0 Z#
b0 _#
b0 <
b0 :"
b0 5#
b0 [#
b0 `#
b10000 +
b10000 j"
b1 5
b1 i"
b1 u"
b1 N#
b1 w#
b1000 \
b1000 S"
b1000 e"
b1000 l"
b1000 K#
b110100 9
b110100 g"
b10001 h"
b11111 4
b11111 v"
b11111 V#
b11111 p#
b11111 y#
b1 [
b1 S#
b1 }#
b1 T#
b100 '
1$
#56000
b100000 #$
b11111111111011111000111110010011 %
b1101 )
#60000
0$
#65000
b1111111111111111111111111111111111111111111111111111111111111110 P
b1111111111111111111111111111111111111111111111111111111111111110 +#
b1111111111111111111111111111111111111111111111111111111111111110 F#
b1 $#
1b
b1 2
b1 *#
b1 s#
b0 T"
0`
b0 L#
0F
b10000 s
b10000 y
b10011 D#
b111111 J"
b1111111 I"
1H"
b10011 D"
b11110 |"
b11111 {"
b11110 (#
b11111 '#
b11111 &#
b11110 o#
b11111 n#
b111100 7
b111100 j#
b111100 k#
b10000011111101111110010011 N
b10000011111101111110010011 >#
b10000011111101111110010011 J#
b1000 3
b1000 m"
b1000 q#
b1000 "$
1E
b0 +
b0 j"
b0 5
b0 i"
b0 u"
b0 N#
b0 w#
b0 \
b0 S"
b0 e"
b0 l"
b0 K#
b0 9
b0 g"
b0 h"
b100000 3#
b11111111111011111000111110010011 M
b11111111111011111000111110010011 G"
b11111111111011111000111110010011 B#
b11111111111011111000111110010011 C#
b110100 =
b110100 ,#
b110100 A#
b111100 ;
b111100 W#
b111100 h#
b111000 >
b111000 ?#
b111000 G#
b111000 X#
b111000 m#
b1 4
b1 v"
b1 V#
b1 p#
b1 y#
b1000 [
b1000 S#
b1000 }#
b10001 T#
b101 '
1$
#66000
b100000 #$
b10000011111101111110010011 %
b1110 )
#70000
0$
#75000
b1 %"
b1 4"
b1 |
b1 ~
b101010 "#
b10101 t
b10101 O"
b1111111111111111111111111111111111111111111111111111111111111111 ]
b1111111111111111111111111111111111111111111111111111111111111111 7"
b1111111111111111111111111111111111111111111111111111111111111111 Y"
b100000000000000000000000000000000000000000000000000000000000000 ."
b1 )"
b1 '"
b1 /"
b1 ^
b1 1"
b1 ;"
b1000000 7
b1000000 j#
b1000000 k#
b1000000001100111 N
b1000000001100111 >#
b1000000001100111 J#
b0 J"
b1 I"
b101 K"
b0 |"
b0 (#
b101 %#
b0 o#
b100000 P
b100000 +#
b100000 F#
b1 ["
1a
b1 *"
b1111111111111111111111111111111111111111111111111111111111111111 3"
b1111111111111111111111111111111111111111111111111111111111111111 }
b1111111111111111111111111111111111111111111111111111111111111111 !"
b1 S
b1 9"
b1 ?"
b1 s"
b110010 :
b110010 _"
b110010 ^#
b110010 e#
b110100 8
b110100 d#
b110100 g#
b0 3
b0 m"
b0 q#
b0 "$
0_
0E
b1000000 ;
b1000000 W#
b1000000 h#
b111100 >
b111100 ?#
b111100 G#
b111100 X#
b111100 m#
b10000011111101111110010011 M
b10000011111101111110010011 G"
b10000011111101111110010011 B#
b10000011111101111110010011 C#
b111000 =
b111000 ,#
b111000 A#
b11110 ,
b11110 ]"
b11110 w"
b11110 <#
b11110 x#
b11111 0
b11111 x"
b11111 :#
b1 6#
b11111 6
b11111 ^"
b11111 }"
b11111 9#
b1111111111111111111111111111111111111111111111111111111111111110 O
b1111111111111111111111111111111111111111111111111111111111111110 2"
b1111111111111111111111111111111111111111111111111111111111111110 8#
b1111111111111111111111111111111111111111111111111111111111111110 Z#
b1111111111111111111111111111111111111111111111111111111111111110 _#
b1 1
b1 o"
b1 ;#
b1 a#
b110100 <
b110100 :"
b110100 5#
b110100 [#
b110100 `#
b0 4
b0 v"
b0 V#
b0 p#
b0 y#
b0 [
b0 S#
b0 }#
b0 T#
b110 '
1$
#76000
b100000 #$
b1000000001100111 %
b1111 )
#80000
0$
